^C:\USERS\CURTIS\SOURCE\REPOS\PRJCPPGAB\PRJCPPGAB\MAIN.CPP
C:\USERS\CURTIS\SOURCE\REPOS\PRJCPPGAB\PRJCPPGAB\DEBUG\VC141.PDB
C:\USERS\CURTIS\SOURCE\REPOS\PRJCPPGAB\PRJCPPGAB\DEBUG\VC141.IDB
C:\USERS\CURTIS\SOURCE\REPOS\PRJCPPGAB\PRJCPPGAB\DEBUG\MAIN.OBJ
